омлет
3
Яйцо | 2 | шт
Молоко | 100 | мл
Помидор | 2 | шт

утка по-пекински
4
Утка | 1 | шт
Вода | 2 | л
Мед | 3 | ст.л
Соевый соус | 60 | мл

запеченный картофель
3
Картофель | 1 | кг
Чеснок | 3 | зубч
Сыр гауда | 100 | г

фахитос
5
Говядина | 500 | г
Перец сладкий | 1 | шт
Лаваш | 2 | шт
Винный уксус | 1 | ст.л
Помидор | 2 | шт